Untitled
…
## # A tibble: 1,643 x 3
##    Dato       shanghai BTC_usd
##    <date>        <dbl>   <dbl>
##  1 2018-11-14    2632.   6359.
##  2 2018-11-13    2655.   6464.
##  3 2018-11-12    2631.   6447.
##  4 2018-11-09    2599.   6420.
##  5 2018-11-08    2636.   6480.
##  6 2018-11-07    2641.   6573.
##  7 2018-11-06    2659.   6515.
##  8 2018-11-05    2665.   6470.
##  9 2018-11-02    2676.   6427.
## 10 2018-11-01    2606.   6400.
## # ... with 1,633 more rows
…
Konklusjon: Hovedindeksen og bitcoin-prisen er positivt korrelerte. Det vil si at når BTC øker, øker også shanghai. Modellen sier ikke noe om årsak og effekt.

Bitcoin og det kinesiske aksjemarkedet.

Vi benytter samme data for BTC og samme metode for å slå sammen datasett.

## Warning in rbind(names(probs), probs_f): number of columns of result is not
## a multiple of vector length (arg 1)

## Warning: 3220 parsing failures.
## row # A tibble: 5 x 5 col     row col    expected   actual     file             expected   <int> <chr>  <chr>      <chr>      <chr>            actual 1  7779 Volume an integer 2330830000 'data/^GSPC.csv' file 2  7783 Volume an integer 2317300000 'data/^GSPC.csv' row 3  7986 Volume an integer 2574800000 'data/^GSPC.csv' col 4  7988 Volume an integer 2566500000 'data/^GSPC.csv' expected 5  7990 Volume an integer 2654100000 'data/^GSPC.csv'
## ... ................. ... ..................................................... ........ ..................................................... ...... ..................................................... .... ..................................................... ... ..................................................... ... ..................................................... ........ .....................................................
## See problems(...) for more details.

## # A tibble: 3,180 x 4
##    Dato       BTC_usd index    verdi
##    <date>       <dbl> <chr>    <dbl>
##  1 2018-11-14   6359. shanghai 2632.
##  2 2018-11-13   6464. shanghai 2655.
##  3 2018-11-12   6447. shanghai 2631.
##  4 2018-11-09   6420. shanghai 2599.
##  5 2018-11-08   6480. shanghai 2636.
##  6 2018-11-07   6573. shanghai 2641.
##  7 2018-11-06   6515. shanghai 2659.
##  8 2018-11-05   6470. shanghai 2665.
##  9 2018-11-02   6427. shanghai 2676.
## 10 2018-11-01   6400. shanghai 2606.
## # ... with 3,170 more rows
…
