Project_tidy
…
##       Date                  SH      
##  Min.   :2001-11-08   Min.   :1012  
##  1st Qu.:2006-03-02   1st Qu.:1668  
##  Median :2010-05-31   Median :2397  
##  Mean   :2010-06-02   Mean   :2490  
##  3rd Qu.:2014-09-06   3rd Qu.:3090  
##  Max.   :2018-12-07   Max.   :6092

## # A tibble: 3,174 x 4
##    Date         BTC index verdi
##    <date>     <dbl> <chr> <dbl>
##  1 2012-02-02   6.1 SP    1326.
##  2 2012-02-03   6   SP    1345.
##  3 2012-02-06   5.4 SP    1344.
##  4 2012-02-07   5.7 SP    1347.
##  5 2012-02-08   5.6 SP    1350.
##  6 2012-02-09   5.8 SP    1352.
##  7 2012-02-10   5.9 SP    1343.
##  8 2012-02-13   5.3 SP    1352.
##  9 2012-02-14   4.5 SP    1350.
## 10 2012-02-15   4.3 SP    1343.
## # ... with 3,164 more rows
…
